<?xml version="1.0" encoding="utf-8"?>
<!-- Generator: Adobe Illustrator 21.1.0, SVG Export Plug-In . SVG Version: 6.00 Build 0)  -->
<svg version="1.1" id="Layer_1" xmlns="http://www.w3.org/2000/svg" xmlns:xlink="http://www.w3.org/1999/xlink" x="0px" y="0px"
	 viewBox="0 0 234 164.8" style="enable-background:new 0 0 234 164.8;" xml:space="preserve">
<style type="text/css">
	.st0{fill:none;stroke:#FF9292;stroke-width:15;stroke-linecap:round;stroke-linejoin:round;}
</style>
<title>down-02</title>
<path class="st0" d="M35.8,114.7v34.2c0,4.7,3.8,8.5,8.5,8.5l0,0h145.3c4.7,0,8.5-3.8,8.5-8.5l0,0v-34.2"/>
<polyline class="st0" points="165.9,77.8 117,119.3 68.1,77.8 "/>
<line class="st0" x1="117" y1="119.3" x2="117" y2="7.5"/>
</svg>
